%YAML 1.1
%TAG !u! tag:unity3d.com,2011:
--- !u!114 &11400000
MonoBehaviour:
  m_ObjectHideFlags: 0
  m_CorrespondingSourceObject: {fileID: 0}
  m_PrefabInstance: {fileID: 0}
  m_PrefabAsset: {fileID: 0}
  m_GameObject: {fileID: 0}
  m_Enabled: 1
  m_EditorHideFlags: 0
  m_Script: {fileID: 11500000, guid: 51f9f387f1da29c41b38ee1365c71250, type: 3}
  m_Name: Levels
  m_EditorClassIdentifier: 
  levels:
  - {fileID: 11400000, guid: 9c45ce694fcd5a448adba57e570a2f99, type: 2}
  - {fileID: 11400000, guid: 91e91e2ba3c4dd341a5a1b9bdab1876b, type: 2}
  - {fileID: 11400000, guid: ffafecb8250a4a248872b7c03273e4d5, type: 2}
  - {fileID: 11400000, guid: c068ca43966c4ce4cbd4236835a8640f, type: 2}
  - {fileID: 11400000, guid: 7d1e19c38a750d0429fd54c7a8c503a0, type: 2}
  - {fileID: 11400000, guid: 3361af5ab8bc2ed42b9a1a2122d39f96, type: 2}
  - {fileID: 11400000, guid: d2c34eaa150d6824d8ab74b4d6807df6, type: 2}
  - {fileID: 11400000, guid: 4bdaea9a73e351843a7f7cb3d80a3463, type: 2}
  - {fileID: 11400000, guid: ab812e43021883f49a378440d92e89df, type: 2}
  - {fileID: 11400000, guid: ddb8676db8d7b434ab8ab131d4b5cc7d, type: 2}
